Lab1/mds/p1swtb.vcd
$date
	Mon Sep  4 16:11:41 2023
$end
$version
	Questa Intel Starter FPGA Edition Version 2021.2
$end
$timescale
	1ps
$end

$scope module p1swtb $end
$var reg 1 ! clk $end
$var reg 1 " rst $end
$var reg 1 # en $end
$var reg 1 $ CLOCK_50 $end
$var reg 1 % KEY0 $end
$var reg 1 & KEY2 $end
$var wire 1 ' HEX3 [6] $end
$var wire 1 ( HEX3 [5] $end
$var wire 1 ) HEX3 [4] $end
$var wire 1 * HEX3 [3] $end
$var wire 1 + HEX3 [2] $end
$var wire 1 , HEX3 [1] $end
$var wire 1 - HEX3 [0] $end
$var wire 1 . HEX2 [6] $end
$var wire 1 / HEX2 [5] $end
$var wire 1 0 HEX2 [4] $end
$var wire 1 1 HEX2 [3] $end
$var wire 1 2 HEX2 [2] $end
$var wire 1 3 HEX2 [1] $end
$var wire 1 4 HEX2 [0] $end
$var wire 1 5 HEX1 [6] $end
$var wire 1 6 HEX1 [5] $end
$var wire 1 7 HEX1 [4] $end
$var wire 1 8 HEX1 [3] $end
$var wire 1 9 HEX1 [2] $end
$var wire 1 : HEX1 [1] $end
$var wire 1 ; HEX1 [0] $end
$var wire 1 < HEX0 [6] $end
$var wire 1 = HEX0 [5] $end
$var wire 1 > HEX0 [4] $end
$var wire 1 ? HEX0 [3] $end
$var wire 1 @ HEX0 [2] $end
$var wire 1 A HEX0 [1] $end
$var wire 1 B HEX0 [0] $end
$var wire 1 C LED0 $end

$scope module dut $end
$var wire 1 D CLOCK_50 $end
$var wire 1 E KEY0 $end
$var wire 1 F KEY2 $end
$var reg 1 G LED0 $end
$var reg 7 H HEX3 [6:0] $end
$var reg 7 I HEX2 [6:0] $end
$var reg 7 J HEX1 [6:0] $end
$var reg 7 K HEX0 [6:0] $end
$var wire 1 L done $end
$var wire 1 M go_l $end
$var wire 1 N L0 $end
$var wire 1 O sumitup_out [7] $end
$var wire 1 P sumitup_out [6] $end
$var wire 1 Q sumitup_out [5] $end
$var wire 1 R sumitup_out [4] $end
$var wire 1 S sumitup_out [3] $end
$var wire 1 T sumitup_out [2] $end
$var wire 1 U sumitup_out [1] $end
$var wire 1 V sumitup_out [0] $end
$var wire 1 W downstream_out [7] $end
$var wire 1 X downstream_out [6] $end
$var wire 1 Y downstream_out [5] $end
$var wire 1 Z downstream_out [4] $end
$var wire 1 [ downstream_out [3] $end
$var wire 1 \ downstream_out [2] $end
$var wire 1 ] downstream_out [1] $end
$var wire 1 ^ downstream_out [0] $end
$var wire 1 _ inA [7] $end
$var wire 1 ` inA [6] $end
$var wire 1 a inA [5] $end
$var wire 1 b inA [4] $end
$var wire 1 c inA [3] $end
$var wire 1 d inA [2] $end
$var wire 1 e inA [1] $end
$var wire 1 f inA [0] $end
$var wire 1 g tbSum [7] $end
$var wire 1 h tbSum [6] $end
$var wire 1 i tbSum [5] $end
$var wire 1 j tbSum [4] $end
$var wire 1 k tbSum [3] $end
$var wire 1 l tbSum [2] $end
$var wire 1 m tbSum [1] $end
$var wire 1 n tbSum [0] $end

$scope module ip1hwtb $end
$var parameter 2 o IDLE $end
$var parameter 2 p SUM $end
$var parameter 2 q DONE $end
$var parameter 8 r SEED $end
$var wire 1 D clk $end
$var wire 1 F reset_l $end
$var wire 1 E Button0 $end
$var reg 8 s valueToinA [7:0] $end
$var reg 8 t tbSum [7:0] $end
$var reg 1 u go_l $end
$var reg 1 v L0 $end
$var wire 1 W outResult [7] $end
$var wire 1 X outResult [6] $end
$var wire 1 Y outResult [5] $end
$var wire 1 Z outResult [4] $end
$var wire 1 [ outResult [3] $end
$var wire 1 \ outResult [2] $end
$var wire 1 ] outResult [1] $end
$var wire 1 ^ outResult [0] $end
$var reg 1 w calzero $end
$var reg 2 x state [1:0] $end
$var reg 1 y stateisidle $end
$var reg 1 z stateissum $end
$var reg 1 { stateisdone $end
$upscope $end

$scope module idownstream $end
$var wire 1 D clk $end
$var wire 1 F reset_l $end
$var wire 1 L done $end
$var wire 1 O downstream_in [7] $end
$var wire 1 P downstream_in [6] $end
$var wire 1 Q downstream_in [5] $end
$var wire 1 R downstream_in [4] $end
$var wire 1 S downstream_in [3] $end
$var wire 1 T downstream_in [2] $end
$var wire 1 U downstream_in [1] $end
$var wire 1 V downstream_in [0] $end
$var reg 8 | downstream_out [7:0] $end
$upscope $end

$scope module isumitup $end
$var wire 1 D clk $end
$var wire 1 F reset_l $end
$var wire 1 M go_l $end
$var wire 1 _ inA [7] $end
$var wire 1 ` inA [6] $end
$var wire 1 a inA [5] $end
$var wire 1 b inA [4] $end
$var wire 1 c inA [3] $end
$var wire 1 d inA [2] $end
$var wire 1 e inA [1] $end
$var wire 1 f inA [0] $end
$var reg 1 } done $end
$var reg 8 ~ sum [7:0] $end
$var reg 1 !! ld_l $end
$var reg 1 "! cl_l $end
$var reg 1 #! inAeq $end
$var reg 8 $! addOut [7:0] $end
$var reg 1 %! state $end

$scope begin st_machine $end
$upscope $end

$scope begin reg_sum $end
$upscope $end
$upscope $end

$scope module ibccdtohex1 $end
$var wire 1 [ bcd [3] $end
$var wire 1 \ bcd [2] $end
$var wire 1 ] bcd [1] $end
$var wire 1 ^ bcd [0] $end
$var reg 7 &! segment [6:0] $end
$upscope $end

$scope module ibccdtohex2 $end
$var wire 1 W bcd [3] $end
$var wire 1 X bcd [2] $end
$var wire 1 Y bcd [1] $end
$var wire 1 Z bcd [0] $end
$var reg 7 '! segment [6:0] $end
$upscope $end

$scope module ibccdtohex3 $end
$var wire 1 k bcd [3] $end
$var wire 1 l bcd [2] $end
$var wire 1 m bcd [1] $end
$var wire 1 n bcd [0] $end
$var reg 7 (! segment [6:0] $end
$upscope $end

$scope module ibccdtohex4 $end
$var wire 1 g bcd [3] $end
$var wire 1 h bcd [2] $end
$var wire 1 i bcd [1] $end
$var wire 1 j bcd [0] $end
$var reg 7 )! segment [6:0] $end
$upscope $end
$upscope $end
$upscope $end
$enddefinitions $end
#0
$dumpvars
0!
0"
1#
0$
1%
0&
xG
b111111 H
b111111 I
b111111 J
b111111 K
bx s
bx t
xu
xv
xw
bx x
xy
xz
x{
bx |
0}
bx ~
x!!
1"!
x#!
bx $!
0%!
b111111 &!
b111111 '!
b111111 (!
b111111 )!
b0 o
b1 p
b11 q
b1111011 r
1-
1,
1+
1*
1)
1(
0'
14
13
12
11
10
1/
0.
1;
1:
19
18
17
16
05
1B
1A
1@
1?
1>
1=
0<
xC
0L
xM
zN
xV
xU
xT
xS
xR
xQ
xP
xO
x^
x]
x\
x[
xZ
xY
xX
xW
xf
xe
xd
xc
xb
xa
x`
x_
xn
xm
xl
xk
xj
xi
xh
xg
0F
1E
0D
$end
#5
1!
1$
1D
b0 x
b1111011 s
b0 t
b0 |
b0 ~
0w
1y
0{
0z
0V
0U
0T
0S
0R
0Q
0P
0O
1f
1e
0d
1c
1b
1a
1`
0_
b1111011 $!
0#!
0u
0M
1!!
0^
0]
0\
0[
0Z
0Y
0X
0W
0n
0m
0l
0k
0j
0i
0h
0g
1v
1G
1C
b1000000 )!
b1000000 (!
b1000000 '!
b1000000 &!
b1000000 K
b1000000 J
b1000000 I
b1000000 H
0-
0,
0+
0*
0)
0(
1'
04
03
02
01
00
0/
1.
0;
0:
09
08
07
06
15
0B
0A
0@
0?
0>
0=
1<
#10
0!
0$
0D
#15
1!
1$
1D
#20
0!
0$
0D
#25
1!
1$
1D
#30
0!
0$
0D
#35
1!
1$
1D
#40
0!
0$
0D
#45
1!
1$
1D
#50
0!
0$
0D
#55
1!
1$
1D
#60
0!
0$
0D
#65
1!
1$
1D
#70
0!
0$
0D
#75
1!
1$
1D
#80
0!
0$
0D
#85
1!
1$
1D
#90
0!
0$
0D
#95
1!
1$
1D
#100
1"
0!
0$
1&
1F
0D
#105
1!
1$
1D
#110
0!
0$
0D
#115
1!
1$
1D
#120
0!
0$
0D
#125
1!
1$
1D
#130
0!
0$
0D
#135
1!
1$
1D
#140
0!
0$
0D
#145
1!
1$
1D
#150
0!
0$
0D
#155
1!
1$
1D
#160
0!
0$
0D
#165
1!
1$
1D
#170
0!
0$
0D
#175
1!
1$
1D
#180
0!
0$
0D
#185
1!
1$
1D
#190
0!
0$
0D
#195
1!
1$
1D
#200
0#
0!
0$
0%
0E
0D
#205
1!
1$
1D
b1 x
1z
0y
1u
1M
0!!
#210
0!
0$
0D
#215
1!
1$
1D
b1111011 ~
1%!
b1111010 s
b1111011 t
0v
b11110110 $!
0f
1V
1U
1S
1R
1Q
1P
b11110101 $!
0G
0C
1n
1m
1k
1j
1i
1h
b1111000 )!
b11 (!
b11 I
b1111000 H
1*
1)
1(
14
13
0.
#220
0!
0$
0D
#225
1!
1$
1D
b1111001 s
b11110101 t
b11110101 ~
b1101111 $!
0U
1T
0S
1O
1f
0e
b1101110 $!
0m
1l
0k
1g
b1110 )!
b10010 (!
b10010 I
b1110 H
1,
1+
0)
0(
0'
04
10
#230
0!
0$
0D
#235
1!
1$
1D
b1101110 ~
b1111000 s
b1101110 t
b11100111 $!
0f
0V
1U
1S
0R
0O
b11100110 $!
0n
1m
1k
0j
0g
b10 )!
b110 (!
b110 I
b10 H
0+
0*
12
00
#240
0!
0$
0D
#245
1!
1$
1D
b1110111 s
b11100110 t
b11100110 ~
b1011110 $!
0S
1O
1f
1e
1d
0c
b1011101 $!
0k
1g
b110 )!
b10 (!
b10 I
b110 H
1+
02
#250
0!
0$
0D
#255
1!
1$
1D
b1011101 ~
b1110110 s
b1011101 t
b11010100 $!
0f
1V
0U
1S
1R
0Q
0O
b11010011 $!
1n
0m
1k
1j
0i
0g
b10010 )!
b100001 (!
b100001 I
b10010 H
0+
1)
14
03
1/
#260
0!
0$
0D
#265
1!
1$
1D
b1110101 s
b11010011 t
b11010011 ~
b1001001 $!
1U
0T
0S
1O
1f
0e
b1001000 $!
1m
0l
0k
1g
b100001 )!
b110000 (!
b110000 I
b100001 H
1-
0,
0)
1(
04
10
#270
0!
0$
0D
#275
1!
1$
1D
b1001000 ~
b1110100 s
b1001000 t
b10111101 $!
0f
0V
0U
1S
0R
0O
b10111100 $!
0n
0m
1k
0j
0g
b11001 )!
b0 (!
b0 I
b11001 H
1*
1)
0(
00
0/
#280
0!
0$
0D
#285
1!
1$
1D
b1110011 s
b10111100 t
b10111100 ~
b110000 $!
1T
1R
1Q
0P
1O
1f
1e
0d
b101111 $!
1l
1j
1i
0h
1g
b11 )!
b1000110 (!
b1000110 I
b11 H
1,
0*
0)
13
12
1.
#290
0!
0$
0D
#295
1!
1$
1D
b101111 ~
b1110010 s
b101111 t
b10100010 $!
0f
1V
1U
0R
0O
b10100001 $!
1n
1m
0j
0g
b100100 )!
b1110 (!
b1110 I
b100100 H
0-
0,
1+
1(
11
0.
#300
0!
0$
0D
#305
1!
1$
1D
b1110001 s
b10100001 t
b10100001 ~
b10011 $!
0U
0T
0S
1O
1f
0e
b10010 $!
0m
0l
0k
1g
b100000 )!
b1111001 (!
b1111001 I
b100000 H
0+
14
03
02
10
1/
1.
#310
0!
0$
0D
#315
1!
1$
1D
b10010 ~
b1110000 s
b10010 t
b10000011 $!
0f
0V
1U
1R
0Q
0O
b10000010 $!
0n
1m
1j
0i
0g
b1111001 )!
b100100 (!
b100100 I
b1111001 H
1-
1*
1)
1'
04
12
01
00
0.
#320
0!
0$
0D
#325
1!
1$
1D
b1101111 s
b10000010 t
b10000010 ~
b11110010 $!
0R
1O
1f
1e
1d
1c
0b
b11110001 $!
0j
1g
b0 )!
b0 H
0-
0*
0)
0(
0'
#330
0!
0$
0D
#335
1!
1$
1D
b11110001 ~
b1101110 s
b11110001 t
b1100000 $!
0f
1V
0U
1R
1Q
1P
b1011111 $!
1n
0m
1j
1i
1h
b1110 )!
b1111001 (!
b1111001 I
b1110 H
1,
1+
1*
14
02
11
10
1.
#340
0!
0$
0D
#345
1!
1$
1D
b1101101 s
b1011111 t
b1011111 ~
b11001101 $!
1U
1T
1S
0Q
0O
1f
0e
b11001100 $!
1m
1l
1k
0i
0g
b10010 )!
b1110 (!
b1110 I
b10010 H
0+
0*
1)
04
13
12
00
0/
0.
#350
0!
0$
0D
#355
1!
1$
1D
b11001100 ~
b1101100 s
b11001100 t
b111001 $!
0f
0V
0U
0R
1O
b111000 $!
0n
0m
0j
1g
b1000110 )!
b1000110 (!
b1000110 I
b1000110 H
1+
0)
1'
01
1.
#360
0!
0$
0D
#365
1!
1$
1D
b1101011 s
b111000 t
b111000 ~
b10100100 $!
0T
1R
1Q
0P
0O
1f
1e
0d
b10100011 $!
0l
1j
1i
0h
0g
b110000 )!
b0 (!
b0 I
b110000 H
0,
0+
1)
1(
0'
03
02
0.
#370
0!
0$
0D
#375
1!
1$
1D
b10100011 ~
b1101010 s
b10100011 t
b1110 $!
0f
1V
1U
0S
0R
1O
b1101 $!
1n
1m
0k
0j
1g
b100000 )!
b110000 (!
b110000 I
b100000 H
0)
10
1/
#380
0!
0$
0D
#385
1!
1$
1D
b1101001 s
b1101 t
b1101 ~
b1110111 $!
0U
1T
1S
0Q
0O
1f
0e
b1110110 $!
0m
1l
1k
0i
0g
b1000000 )!
b100001 (!
b100001 I
b1000000 H
0(
1'
14
00
#390
0!
0$
0D
#395
1!
1$
1D
b1110110 ~
b1101000 s
b1110110 t
b11011111 $!
0f
0V
1U
0S
1R
1Q
1P
b11011110 $!
0n
1m
0k
1j
1i
1h
b1111000 )!
b10 (!
b10 I
b1111000 H
1*
1)
1(
04
13
0/
#400
0!
0$
0D
#405
1!
1$
1D
b1100111 s
b11011110 t
b11011110 ~
b1000110 $!
1S
0Q
1O
1f
1e
1d
0c
b1000101 $!
1k
0i
1g
b100001 )!
b110 (!
b110 I
b100001 H
1-
0*
0)
0'
12
#410
0!
0$
0D
#415
1!
1$
1D
b1000101 ~
b1100110 s
b1000101 t
b10101100 $!
0f
1V
0U
0S
0R
0O
b10101011 $!
1n
0m
0k
0j
0g
b11001 )!
b10010 (!
b10010 I
b11001 H
1*
1)
0(
02
10
#420
0!
0$
0D
#425
1!
1$
1D
b1100101 s
b10101011 t
b10101011 ~
b10001 $!
1U
0T
1S
1Q
0P
1O
1f
0e
b10000 $!
1m
0l
1k
1i
0h
1g
b100000 )!
b11 (!
b11 I
b100000 H
0-
0*
0)
1(
14
00
#430
0!
0$
0D
#435
1!
1$
1D
b10000 ~
b1100100 s
b10000 t
b1110101 $!
0f
0V
0U
0S
1R
0Q
0O
b1110100 $!
0n
0m
0k
1j
0i
0g
b1111001 )!
b1000000 (!
b1000000 I
b1111001 H
1-
1*
1)
1'
04
03
1.
#440
0!
0$
0D
#445
1!
1$
1D
b1100011 s
b1110100 t
b1110100 ~
b11011000 $!
1T
1Q
1P
1f
1e
0d
b11010111 $!
1l
1i
1h
b1111000 )!
b11001 (!
b11001 I
b1111000 H
0-
14
11
10
0.
#450
0!
0$
0D
#455
1!
1$
1D
b11010111 ~
b1100010 s
b11010111 t
b111010 $!
0f
1V
1U
0Q
1O
b111001 $!
1n
1m
0i
1g
b100001 )!
b1111000 (!
b1111000 I
b100001 H
1-
0*
0)
0'
04
1/
1.
#460
0!
0$
0D
#465
1!
1$
1D
b1100001 s
b111001 t
b111001 ~
b10011011 $!
0U
0T
1S
1Q
0P
0O
1f
0e
b10011010 $!
0m
0l
1k
1i
0h
0g
b110000 )!
b10000 (!
b10000 I
b110000 H
0-
1)
01
0/
0.
#470
0!
0$
0D
#475
1!
1$
1D
b10011010 ~
b1100000 s
b10011010 t
b11111011 $!
0f
0V
1U
0Q
1O
b11111010 $!
0n
1m
0i
1g
b10000 )!
b100000 (!
b100000 I
b10000 H
0(
00
1/
#480
0!
0$
0D
#485
1!
1$
1D
b1011111 s
b11111010 t
b11111010 ~
b1011010 $!
1Q
1P
1f
1e
1d
1c
1b
0a
b1011001 $!
1i
1h
b1110 )!
b1110 H
1,
1+
1*
0)
#490
0!
0$
0D
#495
1!
1$
1D
b1011001 ~
b1011110 s
b1011001 t
b10111000 $!
0f
1V
0U
0Q
0O
b10110111 $!
1n
0m
0i
0g
b10010 )!
b10000 (!
b10000 I
b10010 H
0+
0*
1)
10
0/
#500
0!
0$
0D
#505
1!
1$
1D
b1011101 s
b10110111 t
b10110111 ~
b10101 $!
1U
1T
0S
1Q
0P
1O
1f
0e
b10100 $!
1m
1l
0k
1i
0h
1g
b11 )!
b1111000 (!
b1111000 I
b11 H
1-
0)
11
1/
1.
#510
0!
0$
0D
#515
1!
1$
1D
b10100 ~
b1011100 s
b10100 t
b1110001 $!
0f
0V
0U
0Q
0O
b1110000 $!
0n
0m
0i
0g
b1111001 )!
b11001 (!
b11001 I
b1111001 H
0,
1*
1)
1(
1'
14
0/
0.
#520
0!
0$
0D
#525
1!
1$
1D
b1011011 s
b1110000 t
b1110000 ~
b11001100 $!
0T
1Q
1P
1f
1e
0d
b11001011 $!
0l
1i
1h
b1111000 )!
b1000000 (!
b1000000 I
b1111000 H
0-
04
01
00
1.
#530
0!
0$
0D
#535
1!
1$
1D
b11001011 ~
b1011010 s
b11001011 t
b100110 $!
0f
1V
1U
1S
0R
0Q
1O
b100101 $!
1n
1m
1k
0j
0i
1g
b1000110 )!
b11 (!
b11 I
b1000110 H
1,
1+
0*
0)
0(
14
13
0.
#540
0!
0$
0D
#545
1!
1$
1D
b1011001 s
b100101 t
b100101 ~
b1111111 $!
0U
1T
0S
1Q
0P
0O
1f
0e
b1111110 $!
0m
1l
0k
1i
0h
0g
b100100 )!
b10010 (!
b10010 I
b100100 H
0,
1(
0'
04
10
#550
0!
0$
0D
#555
1!
1$
1D
b1111110 ~
b1011000 s
b1111110 t
b11010111 $!
0f
0V
1U
1S
1R
1P
b11010110 $!
0n
1m
1k
1j
1h
b1111000 )!
b110 (!
b110 I
b1111000 H
0+
1*
1)
1'
12
00
#560
0!
0$
0D
#565
1!
1$
1D
b1010111 s
b11010110 t
b11010110 ~
b101110 $!
0S
0Q
1O
1f
1e
1d
0c
b101101 $!
0k
0i
1g
b100001 )!
b10 (!
b10 I
b100001 H
1-
0*
0)
0'
02
#570
0!
0$
0D
#575
1!
1$
1D
b101101 ~
b1010110 s
b101101 t
b10000100 $!
0f
1V
0U
1S
0R
1Q
0P
0O
b10000011 $!
1n
0m
1k
0j
1i
0h
0g
b100100 )!
b100001 (!
b100001 I
b100100 H
0-
1+
14
03
1/
#580
0!
0$
0D
#585
1!
1$
1D
b1010101 s
b10000011 t
b10000011 ~
b11011001 $!
1U
0T
0S
0Q
1O
1f
0e
b11011000 $!
1m
0l
0k
0i
1g
b0 )!
b110000 (!
b110000 I
b0 H
0+
0(
04
10
#590
0!
0$
0D
#595
1!
1$
1D
b11011000 ~
b1010100 s
b11011000 t
b101101 $!
0f
0V
0U
1S
1R
1P
b101100 $!
0n
0m
1k
1j
1h
b100001 )!
b0 (!
b0 I
b100001 H
1-
1(
00
0/
#600
0!
0$
0D
#605
1!
1$
1D
b1010011 s
b101100 t
b101100 ~
b10000000 $!
1T
0R
1Q
0P
0O
1f
1e
0d
b1111111 $!
1l
0j
1i
0h
0g
b100100 )!
b1000110 (!
b1000110 I
b100100 H
0-
1+
13
12
1.
#610
0!
0$
0D
#615
1!
1$
1D
b1111111 ~
b1010010 s
b1111111 t
b11010010 $!
0f
1V
1U
1R
1P
b11010001 $!
1n
1m
1j
1h
b1111000 )!
b1110 (!
b1110 I
b1111000 H
0+
1*
1)
1'
11
0.
#620
0!
0$
0D
#625
1!
1$
1D
b1010001 s
b11010001 t
b11010001 ~
b100011 $!
0U
0T
0S
0Q
1O
1f
0e
b100010 $!
0m
0l
0k
0i
1g
b100001 )!
b1111001 (!
b1111001 I
b100001 H
1-
0*
0)
0'
14
03
02
10
1/
1.
#630
0!
0$
0D
#635
1!
1$
1D
b100010 ~
b1010000 s
b100010 t
b1110011 $!
0f
0V
1U
0R
1Q
0P
0O
b1110010 $!
0n
1m
0j
1i
0h
0g
b100100 )!
b100100 (!
b100100 I
b100100 H
0-
1+
04
12
01
00
0.
#640
0!
0$
0D
#645
1!
1$
1D
b1001111 s
b1110010 t
b1110010 ~
b11000010 $!
1R
1P
1f
1e
1d
1c
0b
b11000001 $!
1j
1h
b1111000 )!
b1111000 H
0+
1*
1)
1'
#650
0!
0$
0D
#655
1!
1$
1D
b11000001 ~
b1001110 s
b11000001 t
b10000 $!
0f
1V
0U
0R
0Q
1O
b1111 $!
1n
0m
0j
0i
1g
b1000110 )!
b1111001 (!
b1111001 I
b1000110 H
1,
1+
0*
0)
0(
14
02
11
10
1.
#660
0!
0$
0D
#665
1!
1$
1D
b1001101 s
b1111 t
b1111 ~
b1011101 $!
1U
1T
1S
0P
0O
1f
0e
b1011100 $!
1m
1l
1k
0h
0g
b1000000 )!
b1110 (!
b1110 I
b1000000 H
0,
0+
04
13
12
00
0/
0.
#670
0!
0$
0D
#675
1!
1$
1D
b1011100 ~
b1001100 s
b1011100 t
b10101001 $!
0f
0V
0U
1R
1P
b10101000 $!
0n
0m
1j
1h
b10010 )!
b1000110 (!
b1000110 I
b10010 H
1,
1)
0'
01
1.
#680
0!
0$
0D
#685
1!
1$
1D
b1001011 s
b10101000 t
b10101000 ~
b11110100 $!
0T
0R
1Q
0P
1O
1f
1e
0d
b11110011 $!
0l
0j
1i
0h
1g
b100000 )!
b0 (!
b0 I
b100000 H
0,
0)
1(
03
02
0.
#690
0!
0$
0D
#695
1!
1$
1D
b11110011 ~
b1001010 s
b11110011 t
b111110 $!
0f
1V
1U
0S
1R
1P
b111101 $!
1n
1m
0k
1j
1h
b1110 )!
b110000 (!
b110000 I
b1110 H
1,
1+
1*
0(
10
1/
#700
0!
0$
0D
#705
1!
1$
1D
b1001001 s
b111101 t
b111101 ~
b10000111 $!
0U
1T
1S
0P
0O
1f
0e
b10000110 $!
0m
1l
1k
0h
0g
b110000 )!
b100001 (!
b100001 I
b110000 H
0,
0+
0*
1)
1(
14
00
#710
0!
0$
0D
#715
1!
1$
1D
b10000110 ~
b1001000 s
b10000110 t
b11001111 $!
0f
0V
1U
0S
0R
0Q
1O
b11001110 $!
0n
1m
0k
0j
0i
1g
b0 )!
b10 (!
b10 I
b0 H
0)
0(
04
13
0/
#720
0!
0$
0D
#725
1!
1$
1D
b1000111 s
b11001110 t
b11001110 ~
b10110 $!
1S
1P
1f
1e
1d
0c
b10101 $!
1k
1h
b1000110 )!
b110 (!
b110 I
b1000110 H
1,
1+
1'
12
#730
0!
0$
0D
#735
1!
1$
1D
b10101 ~
b1000110 s
b10101 t
b1011100 $!
0f
1V
0U
0S
1R
0P
0O
b1011011 $!
1n
0m
0k
1j
0h
0g
b1111001 )!
b10010 (!
b10010 I
b1111001 H
1-
0,
0+
1*
1)
1(
02
10
#740
0!
0$
0D
#745
1!
1$
1D
b1000101 s
b1011011 t
b1011011 ~
b10100001 $!
1U
0T
1S
1P
1f
0e
b10100000 $!
1m
0l
1k
1h
b10010 )!
b11 (!
b11 I
b10010 H
0-
1,
0*
0(
0'
14
00
#750
0!
0$
0D
#755
1!
1$
1D
b10100000 ~
b1000100 s
b10100000 t
b11100101 $!
0f
0V
0U
0S
0R
1Q
0P
1O
b11100100 $!
0n
0m
0k
0j
1i
0h
1g
b100000 )!
b1000000 (!
b1000000 I
b100000 H
0,
0)
1(
04
03
1.
#760
0!
0$
0D
#765
1!
1$
1D
b1000011 s
b11100100 t
b11100100 ~
b101000 $!
1T
1P
1f
1e
0d
b100111 $!
1l
1h
b110 )!
b11001 (!
b11001 I
b110 H
1,
1+
0(
14
11
10
0.
#770
0!
0$
0D
#775
1!
1$
1D
b100111 ~
b1000010 s
b100111 t
b1101010 $!
0f
1V
1U
0P
0O
b1101001 $!
1n
1m
0h
0g
b100100 )!
b1111000 (!
b1111000 I
b100100 H
0,
1(
04
1/
1.
#780
0!
0$
0D
#785
1!
1$
1D
b1000001 s
b1101001 t
b1101001 ~
b10101011 $!
0U
0T
1S
1P
1f
0e
b10101010 $!
0m
0l
1k
1h
b10 )!
b10000 (!
b10000 I
b10 H
1,
0+
0(
01
0/
0.
#790
0!
0$
0D
#795
1!
1$
1D
b10101010 ~
b1000000 s
b10101010 t
b11101011 $!
0f
0V
1U
0P
1O
b11101010 $!
0n
1m
0h
1g
b100000 )!
b100000 (!
b100000 I
b100000 H
0,
1(
00
1/
#800
0!
0$
0D
#805
1!
1$
1D
b111111 s
b11101010 t
b11101010 ~
b101010 $!
1P
1f
1e
1d
1c
1b
1a
0`
b101001 $!
1h
b110 )!
b110 H
1,
1+
0(
#810
0!
0$
0D
#815
1!
1$
1D
b101001 ~
b111110 s
b101001 t
b1101000 $!
0f
1V
0U
0P
0O
b1100111 $!
1n
0m
0h
0g
b100100 )!
b10000 (!
b10000 I
b100100 H
0,
1(
10
0/
#820
0!
0$
0D
#825
1!
1$
1D
b111101 s
b1100111 t
b1100111 ~
b10100101 $!
1U
1T
0S
1P
1f
0e
b10100100 $!
1m
1l
0k
1h
b10 )!
b1111000 (!
b1111000 I
b10 H
1,
0+
0(
11
1/
1.
#830
0!
0$
0D
#835
1!
1$
1D
b10100100 ~
b111100 s
b10100100 t
b11100001 $!
0f
0V
0U
0P
1O
b11100000 $!
0n
0m
0h
1g
b100000 )!
b11001 (!
b11001 I
b100000 H
0,
1(
14
0/
0.
#840
0!
0$
0D
#845
1!
1$
1D
b111011 s
b11100000 t
b11100000 ~
b11100 $!
0T
1P
1f
1e
0d
b11011 $!
0l
1h
b110 )!
b1000000 (!
b1000000 I
b110 H
1,
1+
0(
04
01
00
1.
#850
0!
0$
0D
#855
1!
1$
1D
b11011 ~
b111010 s
b11011 t
b1010110 $!
0f
1V
1U
1S
1R
0Q
0P
0O
b1010101 $!
1n
1m
1k
1j
0i
0h
0g
b1111001 )!
b11 (!
b11 I
b1111001 H
1-
0,
0+
1*
1)
1(
1'
14
13
0.
#860
0!
0$
0D
#865
1!
1$
1D
b111001 s
b1010101 t
b1010101 ~
b10001111 $!
0U
1T
0S
1P
1f
0e
b10001110 $!
0m
1l
0k
1h
b10010 )!
b10010 (!
b10010 I
b10010 H
0-
1,
0*
0(
0'
04
10
#870
0!
0$
0D
#875
1!
1$
1D
b10001110 ~
b111000 s
b10001110 t
b11000111 $!
0f
0V
1U
1S
0R
0P
1O
b11000110 $!
0n
1m
1k
0j
0h
1g
b0 )!
b110 (!
b110 I
b0 H
0,
0)
12
00
#880
0!
0$
0D
#885
1!
1$
1D
b110111 s
b11000110 t
b11000110 ~
b11111110 $!
0S
1P
1f
1e
1d
0c
b11111101 $!
0k
1h
b1000110 )!
b10 (!
b10 I
b1000110 H
1,
1+
1'
02
#890
0!
0$
0D
#895
1!
1$
1D
b11111101 ~
b110110 s
b11111101 t
b110100 $!
0f
1V
0U
1S
1R
1Q
b110011 $!
1n
0m
1k
1j
1i
b1110 )!
b100001 (!
b100001 I
b1110 H
1*
0'
14
03
1/
#900
0!
0$
0D
#905
1!
1$
1D
b110101 s
b110011 t
b110011 ~
b1101001 $!
1U
0T
0S
0P
0O
1f
0e
b1101000 $!
1m
0l
0k
0h
0g
b110000 )!
b110000 (!
b110000 I
b110000 H
0,
0+
0*
1)
1(
04
10
#910
0!
0$
0D
#915
1!
1$
1D
b1101000 ~
b110100 s
b1101000 t
b10011101 $!
0f
0V
0U
1S
0R
1P
b10011100 $!
0n
0m
1k
0j
1h
b10 )!
b0 (!
b0 I
b10 H
1,
0)
0(
00
0/
#920
0!
0$
0D
#925
1!
1$
1D
b110011 s
b10011100 t
b10011100 ~
b11010000 $!
1T
1R
0Q
0P
1O
1f
1e
0d
b11001111 $!
1l
1j
0i
0h
1g
b10000 )!
b1000110 (!
b1000110 I
b10000 H
0,
1)
13
12
1.
#930
0!
0$
0D
#935
1!
1$
1D
b11001111 ~
b110010 s
b11001111 t
b10 $!
0f
1V
1U
0R
1P
b1 $!
1n
1m
0j
1h
b1000110 )!
b1110 (!
b1110 I
b1000110 H
1,
1+
0)
1'
11
0.
#940
0!
0$
0D
#945
1!
1$
1D
b110001 s
b1 t
b1 ~
b110011 $!
0U
0T
0S
0P
0O
1f
0e
b110010 $!
0m
0l
0k
0h
0g
b1000000 )!
b1111001 (!
b1111001 I
b1000000 H
0,
0+
14
03
02
10
1/
1.
#950
0!
0$
0D
#955
1!
1$
1D
b110010 ~
b110000 s
b110010 t
b1100011 $!
0f
0V
1U
1R
1Q
b1100010 $!
0n
1m
1j
1i
b110000 )!
b100100 (!
b100100 I
b110000 H
1)
1(
0'
04
12
01
00
0.
#960
0!
0$
0D
#965
1!
1$
1D
b101111 s
b1100010 t
b1100010 ~
b10010010 $!
0R
1P
1f
1e
1d
1c
0b
b10010001 $!
0j
1h
b10 )!
b10 H
1,
0)
0(
#970
0!
0$
0D
#975
1!
1$
1D
b10010001 ~
b101110 s
b10010001 t
b11000000 $!
0f
1V
0U
1R
0Q
0P
1O
b10111111 $!
1n
0m
1j
0i
0h
1g
b10000 )!
b1111001 (!
b1111001 I
b10000 H
0,
1)
14
02
11
10
1.
#980
0!
0$
0D
#985
1!
1$
1D
b101101 s
b10111111 t
b10111111 ~
b11101101 $!
1U
1T
1S
1Q
1f
0e
b11101100 $!
1m
1l
1k
1i
b11 )!
b1110 (!
b1110 I
b11 H
1-
1,
0)
04
13
12
00
0/
0.
#990
0!
0$
0D
#995
1!
1$
1D
b11101100 ~
b101100 s
b11101100 t
b11001 $!
0f
0V
0U
0R
1P
b11000 $!
0n
0m
0j
1h
b110 )!
b1000110 (!
b1000110 I
b110 H
0-
1+
01
1.
#1000
0!
0$
0D
